<?xml version="1.0" encoding="UTF-8"?>
<svg width="512px" height="512px" viewBox="0 0 512 512" version="1.1" xmlns="http://www.w3.org/2000/svg" xmlns:xlink="http://www.w3.org/1999/xlink">
    <!-- Generator: Sketch 60 (88103) - https://sketch.com -->
    <title>icons/uE007-sucursal</title>
    <desc>Created with Sketch.</desc>
    <g id="icons/uE007-sucursal" stroke="none" stroke-width="1" fill="none" fill-rule="evenodd">
        <path d="M332.8,0 C337.5125,0 341.333333,3.82083307 341.333333,8.53333333 L341.333333,8.53333333 L341.333333,51.2 L486.4,51.2 C491.1125,51.2 494.933333,55.0208331 494.933333,59.7333333 L494.933333,59.7333333 L494.933333,153.6 L503.466667,153.6 C508.179167,153.6 512,157.420833 512,162.133333 L512,162.133333 L512,196.266667 C512,200.979167 508.179167,204.8 503.466667,204.8 L503.466667,204.8 L494.933333,204.8 L494.933333,503.466667 C494.933333,508.179167 491.1125,512 486.4,512 L486.4,512 L25.6,512 C20.8874997,512 17.0666667,508.179167 17.0666667,503.466667 L17.0666667,503.466667 L17.0666667,204.8 L8.53333333,204.8 C3.82083307,204.8 0,200.979167 0,196.266667 L0,196.266667 L0,162.133333 C0,157.420833 3.82083307,153.6 8.53333333,153.6 L8.53333333,153.6 L17.0666667,153.6 L17.0666667,59.7333333 C17.0666667,55.0208331 20.8874997,51.2 25.6,51.2 L25.6,51.2 L170.666667,51.2 L170.666667,8.53333333 C170.666667,3.82083307 174.4875,0 179.2,0 L179.2,0 Z M418.133333,426.666667 L307.2,426.666667 L307.2,494.933333 L418.133333,494.933333 L418.133333,426.666667 Z M477.866667,204.8 L34.1333333,204.8 L34.1333333,494.933333 L290.133333,494.933333 L290.133333,256 C290.133333,251.2875 293.954166,247.466667 298.666667,247.466667 L298.666667,247.466667 L426.666667,247.466667 C431.379167,247.466667 435.2,251.2875 435.2,256 L435.2,256 L435.2,494.933333 L477.866667,494.933333 L477.866667,204.8 Z M222.35,247 C227.071704,247 230.9,250.82626 230.9,255.545455 L230.9,255.545455 L230.9,375.181818 L239.45,375.181818 C244.171704,375.181818 248,379.008079 248,383.727273 L248,383.727273 L248,426.454545 C248,431.17374 244.171704,435 239.45,435 L239.45,435 L85.55,435 C80.8282956,435 77,431.17374 77,426.454545 L77,426.454545 L77,383.727273 C77,379.008079 80.8282956,375.181818 85.55,375.181818 L85.55,375.181818 L94.1,375.181818 L94.1,255.545455 C94.1,250.82626 97.9282956,247 102.65,247 L102.65,247 Z M230.9,392.272727 L94.1,392.272727 L94.1,417.909091 L230.9,417.909091 L230.9,392.272727 Z M418.133333,324.266667 L307.2,324.266667 L307.2,409.6 L418.133333,409.6 L418.133333,324.266667 Z M392.5,350 C397.194092,350 401,353.880534 401,358.666667 L401,358.666667 L401,367.333333 C401,372.119466 397.194092,376 392.5,376 C387.805908,376 384,372.119466 384,367.333333 L384,367.333333 L384,358.666667 C384,353.880534 387.805908,350 392.5,350 Z M213.8,264.090909 L111.2,264.090909 L111.2,375.181818 L213.8,375.181818 L213.8,264.090909 Z M181.473539,301.405827 C184.838521,298.158033 190.183152,298.204071 193.489541,301.510459 C196.795929,304.816848 196.841967,310.161479 193.594173,313.526461 L193.594173,313.526461 L150.736681,356.383953 C148.585436,358.610534 145.396236,359.506188 142.39956,358.719352 C139.402883,357.936701 137.063299,355.597117 136.280648,352.60044 C135.493812,349.603764 136.389466,346.414564 138.616047,344.263319 L138.616047,344.263319 Z M156.42507,284.413854 C159.80128,281.155223 165.163743,281.201416 168.481164,284.518836 C171.798584,287.836257 171.844777,293.19872 168.586146,296.57493 L168.586146,296.57493 L142.573762,322.587239 C140.421189,324.665455 137.330598,325.482411 134.420912,324.718416 C131.414237,323.933153 129.066847,321.585763 128.281584,318.579088 C127.492123,315.572413 128.390765,312.372571 130.624775,310.214148 Z M418.133333,264.533333 L307.2,264.533333 L307.2,307.2 L418.133333,307.2 L418.133333,264.533333 Z M494.933333,170.666667 L17.0666667,170.666667 L17.0666667,187.733333 L494.933333,187.733333 L494.933333,170.666667 Z M477.866667,68.2666667 L341.333333,68.2666667 L341.333333,153.6 L477.866667,153.6 L477.866667,68.2666667 Z M324.266667,17.0666667 L187.733333,17.0666667 L187.733333,153.6 L324.266667,153.6 L324.266667,17.0666667 Z M170.666667,68.2666667 L34.1333333,68.2666667 L34.1333333,153.6 L170.666667,153.6 L170.666667,68.2666667 Z M273,34 C277.694092,34 281.5,37.8059079 281.5,42.5 L281.5,42.5 L281.5,59.5 L298.5,59.5 C303.194092,59.5 307,63.3059079 307,68 L307,68 L307,102 C307,106.694092 303.194092,110.5 298.5,110.5 L298.5,110.5 L281.5,110.5 L281.5,127.5 C281.5,132.194092 277.694092,136 273,136 L273,136 L239,136 C234.305908,136 230.5,132.194092 230.5,127.5 L230.5,127.5 L230.5,110.5 L213.5,110.5 C208.805908,110.5 205,106.694092 205,102 L205,102 L205,68 C205,63.3059079 208.805908,59.5 213.5,59.5 L213.5,59.5 L230.5,59.5 L230.5,42.5 C230.5,37.8059079 234.305908,34 239,34 L239,34 Z M264.5,51 L247.5,51 L247.5,68 C247.5,72.6940921 243.694092,76.5 239,76.5 L239,76.5 L222,76.5 L222,93.5 L239,93.5 C243.694092,93.5 247.5,97.3059079 247.5,102 L247.5,102 L247.5,119 L264.5,119 L264.5,102 C264.5,97.3059079 268.305908,93.5 273,93.5 L273,93.5 L290,93.5 L290,76.5 L273,76.5 C268.305908,76.5 264.5,72.6940921 264.5,68 L264.5,68 L264.5,51 Z" id="Combined-Shape" fill="#000000" fill-rule="nonzero"></path>
    </g>
</svg>