<?xml version="1.0" encoding="UTF-8"?>
<svg width="512px" height="512px" viewBox="0 0 512 512" version="1.1" xmlns="http://www.w3.org/2000/svg" xmlns:xlink="http://www.w3.org/1999/xlink">
    <!-- Generator: Sketch 60 (88103) - https://sketch.com -->
    <title>icons/uE001-rayosx</title>
    <desc>Created with Sketch.</desc>
    <defs>
        <path d="M194.282667,192.650667 C191.872,193.856 184.554667,197.525333 170.88,186.464 C170.144,185.866667 170.101333,185.152 170.208,184.650667 C170.378667,183.797333 170.933333,183.626667 171.2,183.552 C180.064,180.917333 188.010667,176.757333 194.837333,171.178667 C195.573333,170.581333 196.224,170.602667 196.661333,170.730667 C197.472,170.965333 197.706667,171.658667 197.781333,171.882667 C203.296,188.149333 196.981333,191.306667 194.282667,192.650667 L194.282667,192.650667 Z M202.538667,150.229333 C195.242667,148.128 187.306667,149.792 181.354667,154.656 C176.725333,158.432 171.264,161.28 165.12,163.104 L165.109333,163.104 C156.981333,165.525333 150.922667,172.202667 149.28,180.522667 C147.605333,188.992 150.741333,197.621333 157.472,203.061333 C169.077333,212.426667 179.36,215.541333 187.914667,215.541333 C194.218667,215.541333 199.573333,213.856 203.829333,211.733333 C211.530667,207.882667 228.352,195.605333 217.984,165.034667 C215.541333,157.834667 209.770667,152.309333 202.538667,150.229333 L202.538667,150.229333 Z M490.666667,193.770667 C467.946667,198.005333 406.272,210.176 356.832,225.845333 C338.912,231.530667 330.037333,243.829333 322.208,254.677333 C315.168,264.437333 309.6,272.149333 298.325333,275.306667 C292.48,276.949333 286.176,275.968 280.618667,272.533333 C274.112,268.522667 269.344,261.621333 267.861333,254.069333 C265.568,242.282667 273.088,232.458667 279.818667,226.293333 C283.797333,222.645333 285.621333,217.525333 284.682667,212.586667 C283.776,207.84 280.490667,204.042667 275.392,202.101333 C272.010667,200.821333 255.050667,193.834667 253.653333,181.632 C251.829333,165.749333 260.629333,152.234667 274.570667,149.504 C279.808,148.416 291.477333,153.408 302.848,161.514667 L308.181333,165.312 L308.789333,165.034667 C315.957333,168.736 329.418667,174.197333 346.176,173.397333 C395.978667,171.232 462.709333,157.92 490.666667,151.936 L490.666667,193.770667 Z M458.666667,490.666667 L78.1226667,490.666667 C92.4906667,470.762667 137.973333,409.002667 174.506667,373.109333 C186.741333,361.098667 201.76,358.986667 201.834667,358.976 L202.4,358.912 C202.730667,358.869333 203.061333,358.837333 203.392,358.794667 L208.021333,358.24 L208.064,358.133333 C220.501333,356.128 237.632,351.456 245.824,340.576 C260.906667,320.512 257.237333,292.533333 237.109333,274.037333 C224.064,262.037333 207.797333,262.090667 195.733333,265.269333 C195.210667,247.264 184.576,230.858667 167.306667,222.976 C149.589333,214.901333 128.618667,218.037333 116.32,230.624 C97.8133333,249.546667 100.522667,267.381333 102.709333,281.717333 C104.437333,293.098667 105.930667,302.933333 98.3466667,314.933333 C75.7226667,350.709333 41.2586667,397.152 21.3333333,423.477333 L21.3333333,53.3333333 C21.3333333,35.6906667 35.68,21.3333333 53.3333333,21.3333333 L160,21.3333333 L160,32 C160,43.776 169.546667,53.3333333 181.333333,53.3333333 L330.666667,53.3333333 C342.442667,53.3333333 352,43.776 352,32 L352,21.3333333 L458.666667,21.3333333 C476.309333,21.3333333 490.666667,35.6906667 490.666667,53.3333333 L490.666667,130.101333 C466.816,135.274667 395.797333,149.888 345.248,152.085333 C327.978667,152.821333 315.552,144.362667 315.477333,144.309333 L314.88,143.893333 C314.72,143.776 314.56,143.669333 314.4,143.552 L310.421333,140.746667 L310.304,140.8 C299.722667,133.962667 283.861333,125.941333 270.464,128.565333 C245.728,133.418667 229.386667,157.269333 232.458667,184.064 C234.453333,201.408 248.192,212.074667 258.549333,217.749333 C248.298667,230.112 244.192,244.181333 246.933333,258.165333 C249.578667,271.658667 257.770667,283.509333 269.418667,290.688 C276.650667,295.146667 284.618667,297.429333 292.629333,297.429333 C296.458667,297.429333 300.298667,296.906667 304.074667,295.850667 C322.538667,290.677333 331.552,278.186667 339.509333,267.157333 C346.250667,257.802667 352.074667,249.738667 363.274667,246.186667 C408.501333,231.84 465.813333,220.234667 490.666667,215.498667 L490.666667,458.666667 C490.666667,476.309333 476.309333,490.666667 458.666667,490.666667 L458.666667,490.666667 Z M123.797333,278.506667 C121.813333,265.472 120.501333,256.864 131.573333,245.536 C137.610667,239.370667 148.917333,238.037333 158.453333,242.389333 C170.304,247.786667 176.576,260.309333 173.717333,272.832 L173.408,274.165333 L173.450667,275.541333 C173.653333,281.856 176.554667,285.418667 178.954667,287.296 C180.864,288.789333 184.992,291.093333 191.136,289.781333 L194.154667,288.64 C194.325333,288.533333 211.328,279.317333 222.677333,289.749333 C232.554667,298.816 238.677333,314.581333 228.768,327.754667 C225.525333,332.064 213.578667,336.181333 199.701333,337.749333 L193.173333,338.485333 L192.906667,339.104 C185.098667,341.162667 171.488,346.176 159.562667,357.888 C120.042667,396.714667 72.16,462.336 59.264,480.32 L51.8613333,480.256 C39.328,480.149333 28.5973333,471.125333 26.336,458.805333 L25.344,453.365333 C37.792,437.226667 86.8693333,372.992 116.373333,326.336 C128.224,307.594667 125.770667,291.466667 123.797333,278.506667 L123.797333,278.506667 Z M458.666667,0 L330.666667,0 L181.333333,0 L53.3333333,0 C23.872,0 0,23.8826667 0,53.3333333 L0,458.666667 C0,488.117333 23.872,512 53.3333333,512 L458.666667,512 C488.117333,512 512,488.117333 512,458.666667 L512,211.626667 L512,125.269333 L512,53.3333333 C512,23.8826667 488.117333,0 458.666667,0 L458.666667,0 Z" id="path-1"></path>
    </defs>
    <g id="icons/uE001-rayosx" stroke="none" stroke-width="1" fill="none" fill-rule="evenodd">
        <mask id="mask-2" fill="white">
            <use xlink:href="#path-1"></use>
        </mask>
        <use id="Fill-1" fill="#000000" xlink:href="#path-1"></use>
    </g>
</svg>