<?xml version="1.0" encoding="UTF-8"?>
<svg width="512px" height="512px" viewBox="0 0 512 512" version="1.1" xmlns="http://www.w3.org/2000/svg" xmlns:xlink="http://www.w3.org/1999/xlink">
    <!-- Generator: Sketch 60 (88103) - https://sketch.com -->
    <title>icons/uE00D-question</title>
    <desc>Created with Sketch.</desc>
    <g id="icons/uE00D-question" stroke="none" stroke-width="1" fill="none" fill-rule="evenodd">
        <path d="M256,0 C397.503,0 512,114.516 512,256 C512,397.503 397.484,512 256,512 C114.497,512 0,397.484 0,256 C0,114.497 114.516,0 256,0 Z M256,40 C136.607,40 40,136.623 40,256 C40,375.393 136.623,472 256,472 C375.393,472 472,375.377 472,256 C472,136.607 375.377,40 256,40 Z M256,353.5 C269.807119,353.5 281,364.692881 281,378.5 C281,392.307119 269.807119,403.5 256,403.5 C242.192881,403.5 231,392.307119 231,378.5 C231,364.692881 242.192881,353.5 256,353.5 Z M256,128.5 C300.112,128.5 336,164.388 336,208.5 C336,245.709 310.466,277.066 276,285.969 L276,285.969 L276,318.5 C276,329.546 267.046,338.5 256,338.5 C244.954,338.5 236,329.546 236,318.5 L236,318.5 L236,268.5 C236,257.454 244.954,248.5 256,248.5 C278.056,248.5 296,230.556 296,208.5 C296,186.444 278.056,168.5 256,168.5 C233.944,168.5 216,186.444 216,208.5 C216,219.546 207.046,228.5 196,228.5 C184.954,228.5 176,219.546 176,208.5 C176,164.388 211.888,128.5 256,128.5 Z" id="Combined-Shape" fill="#000000" fill-rule="nonzero"></path>
    </g>
</svg>