<?xml version="1.0" encoding="UTF-8"?>
<svg width="512px" height="512px" viewBox="0 0 512 512" version="1.1" xmlns="http://www.w3.org/2000/svg" xmlns:xlink="http://www.w3.org/1999/xlink">
    <!-- Generator: Sketch 60 (88103) - https://sketch.com -->
    <title>icons/uE004-tomografia</title>
    <desc>Created with Sketch.</desc>
    <defs>
        <path d="M36,407 L133,407 L133,386 L36,386 L36,407 Z M36,457 L133,457 L133,436 L36,436 L36,457 Z M36,356 L133,356 L133,335 L36,335 L36,356 Z M491,250.451741 C491,123.929151 387.151128,21 259.5,21 C131.848872,21 28,123.929151 28,250.451741 C28,260.713096 28.7512908,270.799589 30.074587,280.706957 L125.565349,280.706957 C123.362701,270.961656 122.163197,260.845308 122.163197,250.451741 C122.163197,174.12705 184.810601,112.030074 261.817903,112.030074 C338.825205,112.030074 401.476877,174.12705 401.476877,250.451741 C401.476877,299.408554 375.672601,342.467007 336.861604,367.084023 L336.861604,371.33613 L375.318299,371.33613 L375.318299,449 C444.407167,409.251111 491,335.165494 491,250.451741 L491,250.451741 Z M353,392 L336.27234,392 L336.27234,392.112001 L184.668085,392.112001 L184.668085,392 L168,392 L168,461.078583 L168,483.383953 L168,491 L190.553191,491 L327.761702,491 L353,491 L353,482.315638 L353,459.855191 L353,392 Z M169,353 L169,371 L185,371 L185,365.56785 C179.363033,361.772443 173.99566,357.597077 169,353 L169,353 Z M231.667621,319 L291.328057,319 C297.762534,319 303,313.841202 303,307.497854 C303,301.158798 297.762534,296 291.328057,296 L231.667621,296 C225.237466,296 220,301.158798 220,307.497854 C220,313.841202 225.237466,319 231.667621,319 L231.667621,319 Z M207,342 L207,354.725338 L207,370 L314,370 L314,355.755282 L314,342 L207,342 Z M168.244041,280.914503 L168.244041,323.08397 C173.212601,329.370868 178.834245,335.11293 184.963843,340.284617 L184.963843,320.257632 L200.236616,320.257632 C198.853615,316.575732 198.05967,312.608643 198.05967,308.450011 C198.05967,289.644651 213.524526,274.346673 232.532256,274.346673 L291.463475,274.346673 C310.475474,274.346673 325.94033,289.644651 325.94033,308.450011 C325.94033,312.608643 325.146385,316.575732 323.763384,320.257632 L337.038488,320.257632 L337.038488,342 C363.844809,320.398098 381,287.507872 381,250.718662 C381,185.806542 327.613591,133 261.997866,133 C196.38214,133 143,185.806542 143,250.718662 C143,261.155679 144.395807,271.273457 146.9868,280.914503 L168.244041,280.914503 Z M148,301 L133.96917,301 L35.8981434,301 L23,301 L23,330.356936 L23,489 L147.940385,489 L147.940385,369.910382 L148,369.910382 L148,326.986435 L148,301 Z M512,250.026667 C512,346.504533 456.597333,430.331733 375.7312,472.004267 L375.7312,512 L168.571733,512 L0,512 L0,280.2944 L9.84746667,280.2944 C8.63573333,270.365867 7.936,260.2752 7.936,250.026667 C7.936,112.162133 120.9984,0 259.968,0 C398.941867,0 512,112.162133 512,250.026667 L512,250.026667 Z M451.5,238 C442.938095,238 436,244.940429 436,253.5 C436,262.059571 442.938095,269 451.5,269 C460.061905,269 467,262.059571 467,253.5 C467,244.940429 460.061905,238 451.5,238 L451.5,238 Z M451,182.5 C451,173.940429 444.061905,167 435.5,167 C426.938095,167 420,173.940429 420,182.5 C420,191.059571 426.938095,198 435.5,198 C444.061905,198 451,191.059571 451,182.5 L451,182.5 Z M405,117.502188 C405,126.062968 398.057563,133 389.495658,133 C380.938095,133 374,126.062968 374,117.502188 C374,108.941409 380.938095,102 389.495658,102 C398.057563,102 405,108.941409 405,117.502188 L405,117.502188 Z" id="path-1"></path>
    </defs>
    <g id="icons/uE004-tomografia" stroke="none" stroke-width="1" fill="none" fill-rule="evenodd">
        <mask id="mask-2" fill="white">
            <use xlink:href="#path-1"></use>
        </mask>
        <use id="Fill-1" fill="#000000" xlink:href="#path-1"></use>
    </g>
</svg>