<?xml version="1.0" encoding="UTF-8"?>
<svg width="512px" height="512px" viewBox="0 0 512 512" version="1.1" xmlns="http://www.w3.org/2000/svg" xmlns:xlink="http://www.w3.org/1999/xlink">
    <!-- Generator: Sketch 60 (88103) - https://sketch.com -->
    <title>icons/uE016-twitter</title>
    <desc>Created with Sketch.</desc>
    <g id="icons/uE016-twitter" stroke="none" stroke-width="1" fill="none" fill-rule="evenodd">
        <path d="M370.202852,197.408523 C370.316281,199.945219 370.378152,202.502538 370.378152,205.059857 C370.378152,282.913719 311.126722,372.677677 202.719085,372.677677 C169.443003,372.677677 138.466446,362.953678 112.398292,346.227987 C117.007653,346.774511 121.689197,347.052928 126.453235,347.052928 C154.068154,347.052928 179.455732,337.627971 199.625554,321.830339 C173.846129,321.355998 152.088295,304.320954 144.591638,280.902924 C148.180134,281.583501 151.882059,281.965037 155.666479,281.965037 C161.038911,281.965037 166.256666,281.263836 171.196004,279.902683 C144.230726,274.509627 123.937163,250.69975 123.937163,222.136148 C123.937163,221.888665 123.937163,221.630871 123.947474,221.3937 C131.887537,225.796826 140.972207,228.457263 150.624023,228.756304 C134.826392,218.207363 124.421816,200.161766 124.421816,179.723838 C124.421816,168.917103 127.319423,158.790945 132.392814,150.087811 C161.430758,185.745912 204.874245,209.194876 253.834528,211.669701 C252.823975,207.34907 252.318698,202.86345 252.318698,198.233465 C252.318698,165.699831 278.696206,139.312012 311.219528,139.312012 C328.182389,139.312012 343.464432,146.46838 354.22992,157.914445 C367.676468,155.274631 380.256828,150.386852 391.671957,143.61202 C387.227584,157.378232 377.926368,168.917103 365.717232,176.217836 C377.658262,174.794812 389.032144,171.63941 399.570773,166.947555 C391.713204,178.74422 381.710787,189.128172 370.202852,197.408523 M256,0 C114.842182,0 0,114.842182 0,256 C0,397.147507 114.842182,512 256,512 C397.137195,512 512,397.147507 512,256 C512,114.842182 397.157818,0 256,0" id="Fill-1" fill="#000000"></path>
    </g>
</svg>